{
  "Version": "2012-10-17",
  "Statement": [
    {
      "Effect": "Allow",
      "Action": [
        "iam:PassRole",
        "iam:CreateRole",
        "iam:CreateInstanceProfile",
        "iam:AttachRolePolicy",
        "iam:CreatePolicy",
        "iam:DetachRolePolicy",
        "iam:DeleteRole",
        "iam:DeletePolicy"
      ],
      "NotResource": [
        "arn:aws:iam::*:policy/DeveloperAdministratorPolicy",
        "arn:aws:iam::*:role/DeveloperAdministrator"
      ]
    },
    {
      "Effect": "Deny",
      "Action": [
        "ec2:CreateVpc",
        "ec2:DeleteVpc"
      ],
      "Resource": "*"
    }
  ]
}